<?xml version="1.0" encoding="UTF-8" standalone="no"?>
<!DOCTYPE svg PUBLIC "-//W3C//DTD SVG 1.1//EN"
 "http://www.w3.org/Graphics/SVG/1.1/DTD/svg11.dtd">
<!-- Generated by graphviz version 2.43.0 (0)
 -->
<!-- Title: %3 Pages: 1 -->
<svg width="754pt" height="476pt"
 viewBox="0.00 0.00 753.69 476.00" xmlns="http://www.w3.org/2000/svg" xmlns:xlink="http://www.w3.org/1999/xlink">
<g id="graph0" class="graph" transform="scale(1 1) rotate(0) translate(4 472)">
<title>%3</title>
<polygon fill="white" stroke="transparent" points="-4,4 -4,-472 749.69,-472 749.69,4 -4,4"/>
<!-- Z -->
<g id="node1" class="node">
<title>Z</title>
<polygon fill="none" stroke="black" points="130.56,-396 29.34,-378 130.56,-360 231.77,-378 130.56,-396"/>
<text text-anchor="middle" x="130.56" y="-374.3" font-family="Times,serif" font-size="14.00">Map Preview</text>
</g>
<!-- X -->
<g id="node3" class="node">
<title>X</title>
<polygon fill="none" stroke="black" points="215.06,-324 30.06,-324 30.06,-288 221.06,-288 221.06,-318 215.06,-324"/>
<polyline fill="none" stroke="black" points="215.06,-324 215.06,-318 "/>
<polyline fill="none" stroke="black" points="221.06,-318 215.06,-318 "/>
<text text-anchor="middle" x="125.56" y="-302.3" font-family="Times,serif" font-size="14.00">books/map&#45;preview.html</text>
</g>
<!-- Z&#45;&gt;X -->
<g id="edge2" class="edge">
<title>Z&#45;&gt;X</title>
<path fill="none" stroke="black" d="M129.35,-360.05C128.8,-352.35 128.13,-343.03 127.51,-334.36"/>
<polygon fill="black" stroke="black" points="131,-334 126.79,-324.28 124.01,-334.5 131,-334"/>
</g>
<!-- Y -->
<g id="node2" class="node">
<title>Y</title>
<polygon fill="none" stroke="black" points="186.56,-468 68.56,-468 68.56,-432 192.56,-432 192.56,-462 186.56,-468"/>
<polyline fill="none" stroke="black" points="186.56,-468 186.56,-462 "/>
<polyline fill="none" stroke="black" points="192.56,-462 186.56,-462 "/>
<text text-anchor="middle" x="130.56" y="-446.3" font-family="Times,serif" font-size="14.00">books/map.yml</text>
</g>
<!-- Y&#45;&gt;Z -->
<g id="edge1" class="edge">
<title>Y&#45;&gt;Z</title>
<path fill="none" stroke="black" d="M130.56,-431.7C130.56,-423.98 130.56,-414.71 130.56,-406.11"/>
<polygon fill="black" stroke="black" points="134.06,-406.1 130.56,-396.1 127.06,-406.1 134.06,-406.1"/>
</g>
<!-- T -->
<g id="node7" class="node">
<title>T</title>
<polygon fill="none" stroke="black" points="387.56,-396 313.15,-378 387.56,-360 461.96,-378 387.56,-396"/>
<text text-anchor="middle" x="387.56" y="-374.3" font-family="Times,serif" font-size="14.00">Annotate</text>
</g>
<!-- Y&#45;&gt;T -->
<g id="edge5" class="edge">
<title>Y&#45;&gt;T</title>
<path fill="none" stroke="black" d="M192.77,-432.05C239.71,-419.27 302.89,-402.06 344.39,-390.76"/>
<polygon fill="black" stroke="black" points="345.47,-394.09 354.2,-388.09 343.63,-387.34 345.47,-394.09"/>
</g>
<!-- P -->
<g id="node11" class="node">
<title>P</title>
<polygon fill="none" stroke="black" points="200.56,-252 83.59,-234 200.56,-216 317.52,-234 200.56,-252"/>
<text text-anchor="middle" x="200.56" y="-230.3" font-family="Times,serif" font-size="14.00">Generate Index</text>
</g>
<!-- Y&#45;&gt;P -->
<g id="edge10" class="edge">
<title>Y&#45;&gt;P</title>
<path fill="none" stroke="black" d="M68.34,-433.09C49.75,-425.12 31.44,-413.32 20.56,-396 -4.98,-355.35 -8.19,-326.44 20.56,-288 34.69,-269.1 90.47,-254.62 136.24,-245.61"/>
<polygon fill="black" stroke="black" points="136.97,-249.03 146.13,-243.71 135.65,-242.16 136.97,-249.03"/>
</g>
<!-- W -->
<g id="node4" class="node">
<title>W</title>
<polygon fill="none" stroke="black" points="633.56,-396 521.28,-378 633.56,-360 745.83,-378 633.56,-396"/>
<text text-anchor="middle" x="633.56" y="-374.3" font-family="Times,serif" font-size="14.00">Generate Book</text>
</g>
<!-- U -->
<g id="node6" class="node">
<title>U</title>
<polygon fill="none" stroke="black" points="707.06,-324 554.06,-324 554.06,-288 713.06,-288 713.06,-318 707.06,-324"/>
<polyline fill="none" stroke="black" points="707.06,-324 707.06,-318 "/>
<polyline fill="none" stroke="black" points="713.06,-318 707.06,-318 "/>
<text text-anchor="middle" x="633.56" y="-302.3" font-family="Times,serif" font-size="14.00">books/YYYY&#45;mm.yml</text>
</g>
<!-- W&#45;&gt;U -->
<g id="edge4" class="edge">
<title>W&#45;&gt;U</title>
<path fill="none" stroke="black" d="M633.56,-359.7C633.56,-351.98 633.56,-342.71 633.56,-334.11"/>
<polygon fill="black" stroke="black" points="637.06,-334.1 633.56,-324.1 630.06,-334.1 637.06,-334.1"/>
</g>
<!-- V -->
<g id="node5" class="node">
<title>V</title>
<polygon fill="none" stroke="black" points="691.56,-468 569.56,-468 569.56,-432 697.56,-432 697.56,-462 691.56,-468"/>
<polyline fill="none" stroke="black" points="691.56,-468 691.56,-462 "/>
<polyline fill="none" stroke="black" points="697.56,-462 691.56,-462 "/>
<text text-anchor="middle" x="633.56" y="-446.3" font-family="Times,serif" font-size="14.00">books/YYYY&#45;mm</text>
</g>
<!-- V&#45;&gt;W -->
<g id="edge3" class="edge">
<title>V&#45;&gt;W</title>
<path fill="none" stroke="black" d="M633.56,-431.7C633.56,-423.98 633.56,-414.71 633.56,-406.11"/>
<polygon fill="black" stroke="black" points="637.06,-406.1 633.56,-396.1 630.06,-406.1 637.06,-406.1"/>
</g>
<!-- R -->
<g id="node9" class="node">
<title>R</title>
<polygon fill="none" stroke="black" points="633.56,-252 534.52,-234 633.56,-216 732.6,-234 633.56,-252"/>
<text text-anchor="middle" x="633.56" y="-230.3" font-family="Times,serif" font-size="14.00">Render Book</text>
</g>
<!-- U&#45;&gt;R -->
<g id="edge8" class="edge">
<title>U&#45;&gt;R</title>
<path fill="none" stroke="black" d="M633.56,-287.7C633.56,-279.98 633.56,-270.71 633.56,-262.11"/>
<polygon fill="black" stroke="black" points="637.06,-262.1 633.56,-252.1 630.06,-262.1 637.06,-262.1"/>
</g>
<!-- U&#45;&gt;P -->
<g id="edge11" class="edge">
<title>U&#45;&gt;P</title>
<path fill="none" stroke="black" d="M554.01,-289.66C550.82,-289.09 547.66,-288.53 544.56,-288 448.64,-271.46 337.24,-254.75 267.81,-244.63"/>
<polygon fill="black" stroke="black" points="268.27,-241.16 257.88,-243.19 267.27,-248.09 268.27,-241.16"/>
</g>
<!-- T&#45;&gt;U -->
<g id="edge6" class="edge">
<title>T&#45;&gt;U</title>
<path fill="none" stroke="black" d="M419.97,-367.78C456.39,-357.41 516.59,-340.28 563.81,-326.85"/>
<polygon fill="black" stroke="black" points="565.01,-330.14 573.67,-324.04 563.1,-323.41 565.01,-330.14"/>
</g>
<!-- S -->
<g id="node8" class="node">
<title>S</title>
<polygon fill="none" stroke="black" points="529.56,-324 239.56,-324 239.56,-288 535.56,-288 535.56,-318 529.56,-324"/>
<polyline fill="none" stroke="black" points="529.56,-324 529.56,-318 "/>
<polyline fill="none" stroke="black" points="535.56,-318 529.56,-318 "/>
<text text-anchor="middle" x="387.56" y="-302.3" font-family="Times,serif" font-size="14.00">books/YYYY&#45;mm&#45;unknown&#45;locations.yml</text>
</g>
<!-- T&#45;&gt;S -->
<g id="edge7" class="edge">
<title>T&#45;&gt;S</title>
<path fill="none" stroke="black" d="M387.56,-359.7C387.56,-351.98 387.56,-342.71 387.56,-334.11"/>
<polygon fill="black" stroke="black" points="391.06,-334.1 387.56,-324.1 384.06,-334.1 391.06,-334.1"/>
</g>
<!-- Q -->
<g id="node10" class="node">
<title>Q</title>
<polygon fill="none" stroke="black" points="705.56,-180 555.56,-180 555.56,-144 711.56,-144 711.56,-174 705.56,-180"/>
<polyline fill="none" stroke="black" points="705.56,-180 705.56,-174 "/>
<polyline fill="none" stroke="black" points="711.56,-174 705.56,-174 "/>
<text text-anchor="middle" x="633.56" y="-158.3" font-family="Times,serif" font-size="14.00">books/YYYY&#45;mm.pdf</text>
</g>
<!-- R&#45;&gt;Q -->
<g id="edge9" class="edge">
<title>R&#45;&gt;Q</title>
<path fill="none" stroke="black" d="M633.56,-215.7C633.56,-207.98 633.56,-198.71 633.56,-190.11"/>
<polygon fill="black" stroke="black" points="637.06,-190.1 633.56,-180.1 630.06,-190.1 637.06,-190.1"/>
</g>
<!-- O -->
<g id="node12" class="node">
<title>O</title>
<polygon fill="none" stroke="black" points="296.06,-180 99.06,-180 99.06,-144 302.06,-144 302.06,-174 296.06,-180"/>
<polyline fill="none" stroke="black" points="296.06,-180 296.06,-174 "/>
<polyline fill="none" stroke="black" points="302.06,-174 296.06,-174 "/>
<text text-anchor="middle" x="200.56" y="-158.3" font-family="Times,serif" font-size="14.00">books/YYYY&#45;mm&#45;index.yml</text>
</g>
<!-- P&#45;&gt;O -->
<g id="edge12" class="edge">
<title>P&#45;&gt;O</title>
<path fill="none" stroke="black" d="M200.56,-215.7C200.56,-207.98 200.56,-198.71 200.56,-190.11"/>
<polygon fill="black" stroke="black" points="204.06,-190.1 200.56,-180.1 197.06,-190.1 204.06,-190.1"/>
</g>
<!-- N -->
<g id="node13" class="node">
<title>N</title>
<polygon fill="none" stroke="black" points="200.56,-108 96.83,-90 200.56,-72 304.29,-90 200.56,-108"/>
<text text-anchor="middle" x="200.56" y="-86.3" font-family="Times,serif" font-size="14.00">Render Index</text>
</g>
<!-- O&#45;&gt;N -->
<g id="edge13" class="edge">
<title>O&#45;&gt;N</title>
<path fill="none" stroke="black" d="M200.56,-143.7C200.56,-135.98 200.56,-126.71 200.56,-118.11"/>
<polygon fill="black" stroke="black" points="204.06,-118.1 200.56,-108.1 197.06,-118.1 204.06,-118.1"/>
</g>
<!-- M -->
<g id="node14" class="node">
<title>M</title>
<polygon fill="none" stroke="black" points="323.06,-36 72.06,-36 72.06,0 329.06,0 329.06,-30 323.06,-36"/>
<polyline fill="none" stroke="black" points="323.06,-36 323.06,-30 "/>
<polyline fill="none" stroke="black" points="329.06,-30 323.06,-30 "/>
<text text-anchor="middle" x="200.56" y="-14.3" font-family="Times,serif" font-size="14.00">books/YYYY&#45;mm&#45;index (pages).pdf</text>
</g>
<!-- N&#45;&gt;M -->
<g id="edge14" class="edge">
<title>N&#45;&gt;M</title>
<path fill="none" stroke="black" d="M200.56,-71.7C200.56,-63.98 200.56,-54.71 200.56,-46.11"/>
<polygon fill="black" stroke="black" points="204.06,-46.1 200.56,-36.1 197.06,-46.1 204.06,-46.1"/>
</g>
</g>
</svg>
