<svg width="250" viewBox="-10 -20 117 127" xmlns="http://www.w3.org/2000/svg">
<rect x="0" y="0" width="100" height="100" style="fill: white; stroke: silver; stroke-width: 1;" />
<text style="" text-anchor="start" x="0" y="-3" fill="gray" font-family="monospace" font-size="10">l4x4</text>
<rect x="0.0" y="10.625" width="21.25" height="15.9375" style="fill: rgba(192, 192, 192, 0.5); stroke: black; stroke-width: 1;" />
<rect x="26.25" y="10.625" width="21.25" height="15.9375" style="fill: rgba(192, 192, 192, 0.5); stroke: black; stroke-width: 1;" />
<rect x="52.5" y="10.625" width="21.25" height="15.9375" style="fill: rgba(192, 192, 192, 0.5); stroke: black; stroke-width: 1;" />
<rect x="78.75" y="10.625" width="21.25" height="15.9375" style="fill: rgba(192, 192, 192, 0.5); stroke: black; stroke-width: 1;" />
<rect x="0.0" y="31.5625" width="21.25" height="15.9375" style="fill: rgba(192, 192, 192, 0.5); stroke: black; stroke-width: 1;" />
<rect x="26.25" y="31.5625" width="21.25" height="15.9375" style="fill: rgba(192, 192, 192, 0.5); stroke: black; stroke-width: 1;" />
<rect x="52.5" y="31.5625" width="21.25" height="15.9375" style="fill: rgba(192, 192, 192, 0.5); stroke: black; stroke-width: 1;" />
<rect x="78.75" y="31.5625" width="21.25" height="15.9375" style="fill: rgba(192, 192, 192, 0.5); stroke: black; stroke-width: 1;" />
<rect x="0.0" y="52.5" width="21.25" height="15.9375" style="fill: rgba(192, 192, 192, 0.5); stroke: black; stroke-width: 1;" />
<rect x="26.25" y="52.5" width="21.25" height="15.9375" style="fill: rgba(192, 192, 192, 0.5); stroke: black; stroke-width: 1;" />
<rect x="52.5" y="52.5" width="21.25" height="15.9375" style="fill: rgba(192, 192, 192, 0.5); stroke: black; stroke-width: 1;" />
<rect x="78.75" y="52.5" width="21.25" height="15.9375" style="fill: rgba(192, 192, 192, 0.5); stroke: black; stroke-width: 1;" />
<rect x="0.0" y="73.4375" width="21.25" height="15.9375" style="fill: rgba(192, 192, 192, 0.5); stroke: black; stroke-width: 1;" />
<rect x="26.25" y="73.4375" width="21.25" height="15.9375" style="fill: rgba(192, 192, 192, 0.5); stroke: black; stroke-width: 1;" />
<rect x="52.5" y="73.4375" width="21.25" height="15.9375" style="fill: rgba(192, 192, 192, 0.5); stroke: black; stroke-width: 1;" />
<rect x="78.75" y="73.4375" width="21.25" height="15.9375" style="fill: rgba(192, 192, 192, 0.5); stroke: black; stroke-width: 1;" />
</svg>
