<svg width="250" viewBox="-10 -20 117 127" xmlns="http://www.w3.org/2000/svg">
<rect x="0" y="0" width="100" height="100" style="fill: white; stroke: silver; stroke-width: 1;" />
<text style="" text-anchor="start" x="0" y="-3" fill="gray" font-family="monospace" font-size="10">l2</text>
<rect x="18.333333333333332" y="0.0" width="63.333333333333336" height="47.5" style="fill: rgba(192, 192, 192, 0.5); stroke: black; stroke-width: 1;" />
<rect x="18.333333333333332" y="52.5" width="63.333333333333336" height="47.5" style="fill: rgba(192, 192, 192, 0.5); stroke: black; stroke-width: 1;" />
</svg>
