<svg width="250" viewBox="-10 -20 117 127" xmlns="http://www.w3.org/2000/svg">
<rect x="0" y="0" width="100" height="100" style="fill: white; stroke: silver; stroke-width: 1;" />
<text style="" text-anchor="start" x="0" y="-3" fill="gray" font-family="monospace" font-size="10">l3p3d</text>
<rect x="16.25" y="0.0" width="22.5" height="30.0" style="fill: rgba(192, 192, 192, 0.5); stroke: black; stroke-width: 1;" />
<rect x="43.75" y="0.0" width="40.0" height="30.0" style="fill: rgba(192, 192, 192, 0.5); stroke: black; stroke-width: 1;" />
<rect x="16.25" y="35.0" width="40.0" height="30.0" style="fill: rgba(192, 192, 192, 0.5); stroke: black; stroke-width: 1;" />
<rect x="61.25" y="35.0" width="22.5" height="30.0" style="fill: rgba(192, 192, 192, 0.5); stroke: black; stroke-width: 1;" />
<rect x="16.25" y="70.0" width="22.5" height="30.0" style="fill: rgba(192, 192, 192, 0.5); stroke: black; stroke-width: 1;" />
<rect x="43.75" y="70.0" width="40.0" height="30.0" style="fill: rgba(192, 192, 192, 0.5); stroke: black; stroke-width: 1;" />
</svg>
