<svg width="250" viewBox="-10 -20 117 127" xmlns="http://www.w3.org/2000/svg">
<rect x="0" y="0" width="100" height="100" style="fill: white; stroke: silver; stroke-width: 1;" />
<text style="" text-anchor="start" x="0" y="-3" fill="gray" font-family="monospace" font-size="10">l1</text>
<rect x="0.0" y="12.5" width="100.0" height="75.0" style="fill: rgba(192, 192, 192, 0.5); stroke: black; stroke-width: 1;" />
</svg>
